C:\Users\Grupo1\Desktop\adolfo\ejerciciosJava\s_java_adolfo\miaplicacion\src\main\java\com\sjava\App.java
C:\Users\Grupo1\Desktop\adolfo\ejerciciosJava\s_java_adolfo\miaplicacion\src\main\java\com\sjava\PersonaController.java
C:\Users\Grupo1\Desktop\adolfo\ejerciciosJava\s_java_adolfo\miaplicacion\src\main\java\com\sjava\Persona.java
